{
  "trigger": true,
  "modules": [
    "verification-link"
  ],
  "parentResource": "hcfrpocketguidefirebasepwapublic3d26b1f3",
  "functionName": "hcfrpocketguidefirebasepwapublic3d26b1f3CustomMessage",
  "resourceName": "hcfrpocketguidefirebasepwapublic3d26b1f3CustomMessage",
  "parentStack": "auth",
  "triggerEnvs": "[\n  {\n    \"key\": \"RESOURCENAME\",\n    \"value\": \"resourceName\"\n  }\n]",
  "triggerDir": "/usr/local/lib/node_modules/@aws-amplify/cli/node_modules/amplify-category-auth/provider-utils/awscloudformation/triggers/CustomMessage",
  "triggerTemplate": "CustomMessage.json.ejs",
  "roleName": "hcfrpocketguidefirebasepwapublic3d26b1f3CustomMessage",
  "skipEdit": true,
  "REDIRECTURL": "https://myhcfrapp.com/hcfronly/index.html",
  "EMAILSUBJECT": "Welcome To MyHCFRApp",
  "EMAILMESSAGE": "",
  "RESOURCENAME": "resourceName",
  "enableCors": false,
  "triggerEventPath": "CustomMessage.event.json"
}